Data management for the LEGACIES data project • legaciesr
…
Second, it returns a list composed of (1) the original data with columns indicating potential issues for each error type and (2) separate subsets of the data set including only observations identified as a potential issue for each of the error types. For instance, the code below returns only those COWIDs for which there are geometries not overlapping with other geometries of the same COWID (which might indicate either erroneous COWID assignment or erroneous geocoding of the map).

shp_non_overlap <- errors$report$non_overlap
shp_non_overlap
#> Simple feature collection with 310 features and 32 fields
#> Active geometry column: geometry
#> Geometry type: GEOMETRY
#> Dimension:     XY
#> Bounding box:  xmin: -16.94491 ymin: 4.957359 xmax: 15.37766 ymax: 20.90528
#> Geodetic CRS:  WGS 84
#> # A tibble: 310 × 34
#> # Groups:   COWID [40]
#>     year COWID COWNUM name         lyear hyear coder note   coasterror cityerror
#>  * <dbl> <chr>  <int> <chr>        <dbl> <dbl> <chr> <chr>       <int>     <dbl>
#>  1  1870 99999     NA Liptako       1870  1870 cm    <NA>           NA        12
#>  2  1870 AGA     4783 Agaie         1870  1870 cm    <NA>           NA        16
#>  3  1790 AIR     4361 Agades        1790  1790 ss    <NA>           NA        NA
#>  4  2019 AIR     4361 Asben         2019  2019 ss    Borde…         NA        NA
#>  5  2019 AIR     4361 Asben         2019  2019 ss    Borde…         NA        NA
#>  6  1874 AIR     4361 Air or Asben  1874  1874 ss    <NA>           NA        37
#>  7  1967 AIR     4361 Aïr           1967  1967 ss    <NA>           NA        NA
#>  8  1811 AIR     4361 Agades        1811  1811 ss    <NA>           NA        NA
#>  9  1814 AIR     4361 Agades        1814  1814 ss    <NA>           NA        NA
#> 10  1818 AIR     4361 Agades        1818  1818 ss    <NA>           NA        NA
#> # ℹ 300 more rows
#> # ℹ 24 more variables: sourcetype <int>, `Core/Great` <int>, source <chr>,
#> #   core <int>, id <dbl>, layer <chr>, path <chr>, lyear_str <chr>,
#> #   core_str <chr>, geometry <MULTIPOLYGON [°]>, geom_valid <lgl>,
#> #   rebuilt <lgl>, snap_precision <dbl>, capital_names <chr>,
#> #   capital_coords <MULTIPOINT [°]>, incomplete <lgl>, in_spell <lgl>,
#> #   empty_geom <lgl>, missing_id <lgl>, single_map <lgl>, year_outside <lgl>, …
…
