…
``` r
shp_non_overlap <- errors$report$non_overlap
shp_non_overlap
#> Simple feature collection with 2188 features and 33 fields
#> Active geometry column: geometry (with 8 geometries empty)
#> Geometry type: GEOMETRY
#> Dimension:     XY
#> Bounding box:  xmin: -17.26439 ymin: -29.96989 xmax: 115.7275 ymax: 45.67083
#> Geodetic CRS:  WGS 84
#> # A tibble: 2,188 × 35
#> # Groups:   COWID [95]
#>    COWID COWNUM polity_name map_name     year lyear hyear coder note  coasterror
#>  * <chr>  <int> <chr>       <chr>       <int> <chr> <chr> <chr> <chr>      <int>
#>  1 AGA     4783 agaie       Agaie        1870 1870  1870  cm    <NA>          NA
#>  2 AIR     4361 air         Wuste Agad…  1787 1787  1787  ss    Spli…         NA
#>  3 AIR     4361 air         Agades       1795 1795  1795  ss    <NA>          NA
#>  4 AIR     4361 air         Agades       1790 1790  1790  ss    <NA>          NA
#>  5 AIR     4361 air         Air or Asb…  1874 1874  1874  ss    <NA>          NA
#>  6 AIR     4361 air         Agades       1811 1811  1811  ss    <NA>          NA
#>  7 AIR     4361 air         Agades       1814 1814  1814  ss    <NA>          NA
#>  8 AIR     4361 air         Agades       1818 1818  1818  ss    <NA>          NA
#>  9 AIR     4361 air         Air or Asb…  1855 1855  1855  ss    <NA>          NA
#> 10 AIR     4361 air         Air, Asben   1808 1808  1808  ss    Bord…         NA
#> # ℹ 2,178 more rows
#> # ℹ 25 more variables: cityerror <dbl>, sourcetype <int>, `Core/Great` <int>,
#> #   source <chr>, core <int>, id <dbl>, layer <chr>, path <chr>,
#> #   lyear_str <chr>, core_str <chr>, geometry <GEOMETRY [°]>, geom_valid <lgl>,
#> #   rebuilt <lgl>, snap_precision <dbl>, capital_name <chr>,
#> #   capital_coords <MULTIPOINT [°]>, incomplete <lgl>, in_spell <lgl>,
#> #   empty_geom <lgl>, missing_id <lgl>, single_map <lgl>, year_outside <lgl>, …
```
…
